…
``` r
#nest the gapminder dataset by country and continent
gap_nested <- gapminder %>% 
   group_by(continent, country) %>% 
   nest()

#lets get some information on the new dataset
gap_nested
```

    ## # A tibble: 142 x 3
    ##    continent country     data             
    ##    <fct>     <fct>       <list>           
    ##  1 Asia      Afghanistan <tibble [12 × 4]>
    ##  2 Europe    Albania     <tibble [12 × 4]>
    ##  3 Africa    Algeria     <tibble [12 × 4]>
    ##  4 Africa    Angola      <tibble [12 × 4]>
    ##  5 Americas  Argentina   <tibble [12 × 4]>
    ##  6 Oceania   Australia   <tibble [12 × 4]>
    ##  7 Europe    Austria     <tibble [12 × 4]>
    ##  8 Asia      Bahrain     <tibble [12 × 4]>
    ##  9 Asia      Bangladesh  <tibble [12 × 4]>
    ## 10 Europe    Belgium     <tibble [12 × 4]>
    ## # ... with 132 more rows
…
We can finally do this for all countries in our dataset. :muscle:

``` r
#apply this function to all countries in the dataset
gap_nested <- gap_nested %>% 
   mutate(fit = map(country, nested_fit))

#show the result
gap_nested
```

    ## # A tibble: 142 x 4
    ##    continent country     data              fit     
    ##    <fct>     <fct>       <list>            <list>  
    ##  1 Asia      Afghanistan <tibble [12 × 4]> <S3: lm>
    ##  2 Europe    Albania     <tibble [12 × 4]> <S3: lm>
    ##  3 Africa    Algeria     <tibble [12 × 4]> <S3: lm>
    ##  4 Africa    Angola      <tibble [12 × 4]> <S3: lm>
    ##  5 Americas  Argentina   <tibble [12 × 4]> <S3: lm>
    ##  6 Oceania   Australia   <tibble [12 × 4]> <S3: lm>
    ##  7 Europe    Austria     <tibble [12 × 4]> <S3: lm>
    ##  8 Asia      Bahrain     <tibble [12 × 4]> <S3: lm>
    ##  9 Asia      Bangladesh  <tibble [12 × 4]> <S3: lm>
    ## 10 Europe    Belgium     <tibble [12 × 4]> <S3: lm>
    ## # ... with 132 more rows

Finally, we will use the `broom` library to tidy up the results

``` r
#apply broom to each country
gap_nested <- gap_nested %>% 
  mutate(tidy = map(fit, tidy))

#have a look at the result
gap_nested
```

    ## # A tibble: 142 x 5
    ##    continent country     data              fit      tidy            
    ##    <fct>     <fct>       <list>            <list>   <list>          
    ##  1 Asia      Afghanistan <tibble [12 × 4]> <S3: lm> <tibble [2 × 5]>
    ##  2 Europe    Albania     <tibble [12 × 4]> <S3: lm> <tibble [2 × 5]>
    ##  3 Africa    Algeria     <tibble [12 × 4]> <S3: lm> <tibble [2 × 5]>
    ##  4 Africa    Angola      <tibble [12 × 4]> <S3: lm> <tibble [2 × 5]>
    ##  5 Americas  Argentina   <tibble [12 × 4]> <S3: lm> <tibble [2 × 5]>
    ##  6 Oceania   Australia   <tibble [12 × 4]> <S3: lm> <tibble [2 × 5]>
    ##  7 Europe    Austria     <tibble [12 × 4]> <S3: lm> <tibble [2 × 5]>
    ##  8 Asia      Bahrain     <tibble [12 × 4]> <S3: lm> <tibble [2 × 5]>
    ##  9 Asia      Bangladesh  <tibble [12 × 4]> <S3: lm> <tibble [2 × 5]>
    ## 10 Europe    Belgium     <tibble [12 × 4]> <S3: lm> <tibble [2 × 5]>
    ## # ... with 132 more rows
…
``` r
#we can finally return to the original data type for which we started using all the information we have obtained
gap_coefs <- gap_nested %>% 
   dplyr::select(continent, country, tidy) %>% 
   unnest(tidy)
#show the final table
gap_coefs
```

    ## # A tibble: 284 x 7
    ##    continent country    term        estimate  std.error statistic  p.value
    ##    <fct>     <fct>      <chr>          <dbl>      <dbl>     <dbl>    <dbl>
    ##  1 Asia      Afghanist… (Interce…    2.83e+1    2.31e+0     12.2  2.41e- 7
    ##  2 Asia      Afghanist… pop          5.77e-7    1.34e-7      4.30 1.57e- 3
    ##  3 Europe    Albania    (Interce…    4.96e+1    1.94e+0     25.6  1.87e-10
    ##  4 Europe    Albania    pop          7.29e-6    7.17e-7     10.2  1.37e- 6
    ##  5 Africa    Algeria    (Interce…    3.57e+1    1.63e+0     21.8  9.09e-10
    ##  6 Africa    Algeria    pop          1.18e-6    7.59e-8     15.5  2.55e- 8
    ##  7 Africa    Angola     (Interce…    2.86e+1    1.92e+0     14.9  3.84e- 8
    ##  8 Africa    Angola     pop          1.28e-6    2.48e-7      5.14 4.35e- 4
    ##  9 Americas  Argentina  (Interce…    5.32e+1    3.78e-1    141.   8.10e-18
    ## 10 Americas  Argentina  pop          5.53e-7    1.28e-8     43.1  1.08e-12
    ## # ... with 274 more rows
…
